mmaps.part0001.rar	A0090B266510C31CE01FAA9141736AE7
mmaps.part0002.rar	95C02F48C2FE3A893D715DBFD7064588
mmaps.part0003.rar	D8D37FFA988622BCC78604EF605A6854
mmaps.part0004.rar	BF383D5B0DAC713CCE1F7058B7632B36
mmaps.part0005.rar	982760CEDA7BE5875730591D1AAA4767
mmaps.part0006.rar	2B2A2D38053661E3906EBFCB4AB985EB
mmaps.part0007.rar	7C7B7521D68B8139CEA931A63E74DDB7
mmaps.part0008.rar	C6285A6E45ABBB18EE6CDB2BC9999C89
mmaps.part0009.rar	B486EC228E2C819F9DB68824706BF1AA
mmaps.part0010.rar	C2131B3158B87F1D4A9E5E0AD8B3BD4A
mmaps.part0011.rar	F49930E298A8EBA8A524ECACB776E35F
mmaps.part0012.rar	0EBA431CCED9B92BDDCF2EE33F8F6788
mmaps.part0013.rar	3003994C46D4673FE02B40D7B2577BDD
mmaps.part0014.rar	6B04B833C2872C9E387AAD7ADBFE8E7E
mmaps.part0015.rar	656671A1238C8A0C83F61D9E4C03C35A
mmaps.part0016.rar	AB315A7FB376383744E9DFC12F38DCBF
mmaps.part0017.rar	FE2C67E53E769D2B1F151016ED3506B2
mmaps.part0018.rar	667680162414E3093915A174FDC7D9AD
mmaps.part0019.rar	C477D3DA60363B351AA5B0FD4171BC3D
mmaps.part0020.rar	2DF40BE97D68020D0998718C24A75BC1
mmaps.part0021.rar	D5EED0F3C85FCE105DCB82456B78BD00
mmaps.part0022.rar	9C371BB3F45007DE3FD7B975889BA88D
mmaps.part0023.rar	A34BB0235949FC9B5FDF202CFA8E9812
mmaps.part0024.rar	F69D2930E05BFBDFAE74989C29DF7192
mmaps.part0025.rar	3156CA49B1B5782870C13B16568FCEDE
mmaps.part0026.rar	043D4466F466666C965D6B88298927D8
mmaps.part0027.rar	745247C4CF940C994EF3FDCB35D542A2
mmaps.part0028.rar	82EFFD6EC1280429F28F83C295C55E0F
mmaps.part0029.rar	4D65F1CDE91803483C49BDEAD2037CCC
mmaps.part0030.rar	A7FD6AA88E4924572EB6E0731D9B0ED1
mmaps.part0031.rar	980A4E9A6A874C969858663E9ED239AD
mmaps.part0032.rar	95912BF7403E19C416E3444AF7C69FBA
mmaps.part0033.rar	0EE2D4713F3F69F547BE4813521C52DB
mmaps.part0034.rar	E870EDF595454FAD236105E974395600
mmaps.part0035.rar	92EA2D7300E2F79910E2A4EF17538E63
mmaps.part0036.rar	8002748CF3FE39BA8426CB1862BDD923
mmaps.part0037.rar	1DAC37C047C0EAC4B65A05E49C366F5F
mmaps.part0038.rar	660E5753CF766C510F51CD9CAB286FEE
mmaps.part0039.rar	A8071552CA18D5B7763FAEA868D5C927
mmaps.part0040.rar	CE41E7D5F74FEE3A25D10779F3EB7FB0
mmaps.part0041.rar	C000BC229F171DD91D84E16F292C16DC
mmaps.part0042.rar	F33732C7137E0A7B83A3B3112D2F980A
mmaps.part0043.rar	C0DD27509ABE3D5124705CF6B016A608
mmaps.part0044.rar	273FDEFC07E70AEB01CC163C5BB6DE12
mmaps.part0045.rar	95A404915F026747E25C1DA6108092EE
mmaps.part0046.rar	B183201882361956C43999E1E4382C85
mmaps.part0047.rar	AFC3C4D8DEB100F2D84840F34790F807
mmaps.part0048.rar	00D820E9227B4D7CBA6593FB91E32524
mmaps.part0049.rar	F468619E9D57E62CD60B1A8123FEF924
mmaps.part0050.rar	A672CD66EC8936A5E401C646ACD83980
mmaps.part0051.rar	7023D3129689CF4B979CFDB6B0AFB6B4
mmaps.part0052.rar	644A65C97422B8DE9BE9E663A1D7D34D
mmaps.part0053.rar	3190B22E5769985AD19AC4BA70D29012
mmaps.part0054.rar	23D21FA87EECF0B84FBD58CED727B560
mmaps.part0055.rar	F554484F02BC39D7270A7C80B96AB528
mmaps.part0056.rar	A6BBC67FBCC8DF04ED245A3D6A2E22DB
mmaps.part0057.rar	741CC2C74A683F7B7771ACDA7B1814F7
mmaps.part0058.rar	F7E0C3D8D4798A5FC9A245CF3330A004
mmaps.part0059.rar	D199B38167E78FA08EE77F2F138F32C9
mmaps.part0060.rar	44734C85856E9D76535257D66582E486
mmaps.part0061.rar	64264BC79213182C862BABD8356A7292
mmaps.part0062.rar	A28E70FD1C3F42D90378BA657A7EC12C
mmaps.part0063.rar	C526644EE0EF2AA199A541124E2AF8DD
mmaps.part0064.rar	398370852B70FBCFEB604E314C0DA641
mmaps.part0065.rar	4E2C5AC97D0388EE5A1AA22E90161E02
mmaps.part0066.rar	C8679D52912B00CC47C4D533432521AB
mmaps.part0067.rar	E9B293F3983B1F3775E381F29D7D49BA
mmaps.part0068.rar	64E66FF92720F4E7F6E76575AF085522
mmaps.part0069.rar	C3DF40959819E750D354FC788B8B6330
mmaps.part0070.rar	0FB73E3E0EE523129A36D54FDB7642F9
mmaps.part0071.rar	58AD9AFE9EC04DED58E44AC2160AAF9E
mmaps.part0072.rar	3C90EE26AEC6BE5D9B91FEA279D05EB4
mmaps.part0073.rar	BBB198510CA4ED72D37EBCD4B9878A76
mmaps.part0074.rar	5FAF7B687144AF17AA55B141F47B67CF
mmaps.part0075.rar	21A2C536938BC75EFFE9F9BE290E1125
mmaps.part0076.rar	3F3ACC989C1A3871AF59579F433CF93C
mmaps.part0077.rar	CE6AF88E0E5823EB429135646BA1F98B
mmaps.part0078.rar	AA21DF83BDD5E9B75DCB39E54E1F4943
mmaps.part0079.rar	F88C6C7C4A467D676557306054505EE3
mmaps.part0080.rar	A20B5E440CA1C68B27AC6BA237E36AE7
mmaps.part0081.rar	C05EEA383C98CEA74FF269A9BC1AB7BD
mmaps.part0082.rar	45DAEB4053B1992C8FD010102A3EDD25
mmaps.part0083.rar	311E90C35BAC46859FEF4DB95F3CB2D9
mmaps.part0084.rar	570C118BA22E4A61FDB267ED6430F95C
mmaps.part0085.rar	EFDD4001E5E97478BAEC89603E90C47D
mmaps.part0086.rar	3F851B71DCEE1F202C7E8A11D1338441
mmaps.part0087.rar	69560CED8F261A813B7F354ABF61B300
mmaps.part0088.rar	3A34C5CE4451923A0C6E4131472FCADE
mmaps.part0089.rar	8BA3CF2226254F28B00368A89CB032D0
mmaps.part0090.rar	1E9E4D5E902D660AB270E49B43B594BC
mmaps.part0091.rar	24AFB8806F84C2B5BA6E01C4397E30CA
mmaps.part0092.rar	003801D8BF43695CDC8499B23D1F4844
mmaps.part0093.rar	E9A6ABE7AEE3CCFF12BC21BD9EC0AF65
mmaps.part0094.rar	56B73E7E5B009BBA39555300EE8B840F
mmaps.part0095.rar	A2107B3721A00B58C939280357C252EA
mmaps.part0096.rar	4744D98A430AB80D6F958DDF0AD3F66C
mmaps.part0097.rar	77C2F81D828328C597380AC4A7375179
mmaps.part0098.rar	14E81D015A0CC7D0EB958011E5757859
mmaps.part0099.rar	75C6E612D293D10C3D7ED16EDD824DD7
mmaps.part0100.rar	4FC28F759D42BE4472BD5CE2FDB01619
mmaps.part0101.rar	F2CDC4A7E56B0CBEC6AAC5627A0464EA
mmaps.part0102.rar	CADA1416ABA675BCB8E0D99F8714ACAD
mmaps.part0103.rar	A8B384DE5C29903D2EC6BA32A80F81AF
mmaps.part0104.rar	76FDA04F21AA4DC670310607AD2A0185
mmaps.part0105.rar	9ABD42C22B67EDFDAA059563A625B8CC
mmaps.part0106.rar	921AE2E94E065391A5D03CD962ECBDBC
mmaps.part0107.rar	F769C15951AFE0F171F2BECFF09E5443
mmaps.part0108.rar	58E66E63F6FC5A9EA0EB87A8B6A1131B
mmaps.part0109.rar	EE86E6926CDCD48A3058D4276C251775
mmaps.part0110.rar	DB0A132EA95D80AB83F4FDF4B277DAD3
mmaps.part0111.rar	7D1406EDBBC818B7698D5462CFB47A12
mmaps.part0112.rar	2BEFE3B8454C1692434791BA20AD8177
mmaps.part0113.rar	9250284863153DEC2DBFB5B9960982E6
mmaps.part0114.rar	EBDE76AE5C92DAD33217725D3B7DCA2D
mmaps.part0115.rar	A899F7D8CAF6135F657F1E508CE959D4
mmaps.part0116.rar	123308C9D04FA55E1BB59C0BD5307058
mmaps.part0117.rar	FB1225E9A2E8F786D4F2C8724AE76606
mmaps.part0118.rar	A8EB6AF4ABF4614183295E17BA02A10C
mmaps.part0119.rar	CC44E6D0D0B517E8109E6D889AAECBFF
mmaps.part0120.rar	24DD4A6AEF3C78239AD7E15E2C966961
mmaps.part0121.rar	1B27CCC4C190017305E494DCDA7A0109
mmaps.part0122.rar	022A1337661DE4B26DD541E352242E92
mmaps.part0123.rar	9B5A1384B6403D0EDFAD416B0089E06E
mmaps.part0124.rar	6432850A2108CF0F6D2B235E9BC5C84C
mmaps.part0125.rar	5BE981CF7F6AF731B230441115BD5961
mmaps.part0126.rar	78E6B8C3DBAC28FD26DC4A61D76DA95D
mmaps.part0127.rar	C48DD089C5D0EDA3F7BD432BF2133F2D
mmaps.part0128.rar	265B2DCBD3324EA6B4F99CF36A65B8AA
mmaps.part0129.rar	F88E8EAAE81BFFA6A359F11D03B9AE3B
mmaps.part0130.rar	3BBEE46B1A1894ECE084DD59E3DE5F45
mmaps.part0131.rar	62A23B77C7950ED974CA891DAEA5D355
mmaps.part0132.rar	FD76974F3D2D10E03DB75A05A1772397
mmaps.part0133.rar	F9D7F365E1789E2A9AC93AECD6484A6A
mmaps.part0134.rar	6274B2CEEB2B6D3683752F17973CA3A0
mmaps.part0135.rar	CA1E68D13151360CEC8016D285B7C89C
mmaps.part0136.rar	2ED973F45DAAE589C9E7F00AB1A8AA85
mmaps.part0137.rar	3F07934CF6DE6D43B8A8DB3B8701D279
mmaps.part0138.rar	98FE08A62199EA755FD242FC8FDF040A
mmaps.part0139.rar	99226167061030D76BF82A076A4963E0
mmaps.part0140.rar	B77AFA00E1E11FE4907EE78BE4ED1D86
mmaps.part0141.rar	B25DAF07122B7DAA16B45B001EC03EA9
mmaps.part0142.rar	43918E0056A28A1DAF2439CB39B2C787
mmaps.part0143.rar	F107E073D969029E879134E33D286524
mmaps.part0144.rar	78A1985F10B7D9BFD57D0CD97CA3BA12
mmaps.part0145.rar	684F8C8EF03BF906BB143BC93EFC408C
mmaps.part0146.rar	ACFE9427883482264DC275155A931402
mmaps.part0147.rar	B891C9DC0C00129DB528B879DABA3626
mmaps.part0148.rar	2C18AE4D0D15FCE965350645635B0824
mmaps.part0149.rar	79669A056F664B733835543018780FD0
mmaps.part0150.rar	701E59352DFCEA7EDE13D2EDA75A85DC
mmaps.part0151.rar	0B7E710C30979801F7B02D36B649672E
mmaps.part0152.rar	4B9056758490AC194CAF1F1278A0F72D
mmaps.part0153.rar	72DB15F568697195C40D33377C383F93
mmaps.part0154.rar	ACF9227E8F4C826890BA148D29639887
mmaps.part0155.rar	83D002AA617DB8568D7CDF52DA1F862F
mmaps.part0156.rar	4E4EEE8B80660F016ADA7B82DFBAF2F9
mmaps.part0157.rar	884913E8751F7719862E5BCEE38DEB35
mmaps.part0158.rar	5C3B6DE3F9A080205BC451AD8BFDA47C
mmaps.part0159.rar	2108C28550513A3968128554164DCE74
mmaps.part0160.rar	AE86C813DA82FA257ED5C5754E1B7D73
mmaps.part0161.rar	7FFC44543D33CA33E4C7DA24A91CCAEB
mmaps.part0162.rar	EFB353E4071A4ED61FE20CCA875E74A5
mmaps.part0163.rar	F6F1D35F6945DA9A3623CE8EAD2EF39D
mmaps.part0164.rar	6E03F879BAE8F9BD29AE94C65AF30794
mmaps.part0165.rar	3AD3953821DC91B59F8649E015E3CBC6
mmaps.part0166.rar	3B64725AD6F242C13688185494AF8F89
mmaps.part0167.rar	12EFD45B3E5A8B03B19BBDAFD8FAD668
mmaps.part0168.rar	DC0D3D81BB288A834729752EC3F8B3C8
mmaps.part0169.rar	7CE03E64BEDDAE18F4037E73AA86BE6F
mmaps.part0170.rar	1170ECBEF76833BB783CA7B4334888D7
mmaps.part0171.rar	61817826426FDD9D7320765CB2C000C0
mmaps.part0172.rar	64EF79562E7E273B4623A94B91CA3A6D
mmaps.part0173.rar	EAC7D9B669F79DE40F9D136E84DF546D
mmaps.part0174.rar	D9975FBBF81BFD8E4A5273AE18E6434E
mmaps.part0175.rar	BA0B624EC8142B84AA39EC260B5EC7C4
mmaps.part0176.rar	D68ED75821CFA26B52877CFCE8111064
mmaps.part0177.rar	BCA6E200DF075F761A8F5A8D4EEE1136
mmaps.part0178.rar	673018C8666F10DC64E114E83D9E34A0
mmaps.part0179.rar	2F5FA95C7CBB8F4760EDF34773BA77C2
mmaps.part0180.rar	30726042174F0E73107DB61FD114E63C
mmaps.part0181.rar	5C571AA74399A0B38876794A60D7C868
mmaps.part0182.rar	DCE6FBC2BDA803A82F35396271337579
mmaps.part0183.rar	B2373A31D91C383A32D4CA0201414B9C
mmaps.part0184.rar	8E892842165C39886DDBA63A7A3A5137
mmaps.part0185.rar	5C2324F81A1DAD6177A6A878A47B9D40
mmaps.part0186.rar	1343C09BCAA5226387A9C249A4EDCB52
mmaps.part0187.rar	2FF0780A20EC432856D8BA2566A7AB6F
mmaps.part0188.rar	B4817DC6EAF7265373CD632A0D72CF2B
mmaps.part0189.rar	45846ECE637E62C8DBACAD1355502DE8
mmaps.part0190.rar	D41750B8A88D92DDE15F18CA3E9C85EC
mmaps.part0191.rar	AF34ED3FCB21496A749122D6746309D3
mmaps.part0192.rar	9F3ED36A9C527494B6329E67F57DE85E
mmaps.part0193.rar	D3390A8799723550200F2C46210CFFF6
mmaps.part0194.rar	E7BB0C487DA8E61CDD0D4883B2967320
mmaps.part0195.rar	A1368711410F769B9A45711D4FBBF293
mmaps.part0196.rar	92C12BA681F547C5C95510A2C30CA228
mmaps.part0197.rar	23BEDA139328CD1A15E492C38496EF5D
mmaps.part0198.rar	FA50A6A90044B44D60B37A94C9805039
mmaps.part0199.rar	2610B0B50ED4A957E56F5A8D6E3A5E24
mmaps.part0200.rar	2EE9606C39BA4B2E834798D85BB9EE66
mmaps.part0201.rar	FFFDDD5588A5C61014B8772584C44253
mmaps.part0202.rar	2A0F1A6C95860E9B9A35302223C7EB05
mmaps.part0203.rar	EE8317D1114F4211AA7F2108818D8E2C
mmaps.part0204.rar	72302373632FFDC3979BCFB28A6EDA4B
mmaps.part0205.rar	AB9856B4F01DDFB2DD16C12A74E7610D
mmaps.part0206.rar	32C1D7F9DB47795DDC6FDE7E4DDD1AC7
mmaps.part0207.rar	CE996456AE1C842910EEED33B1A31EB7
mmaps.part0208.rar	DFF52339FB5B7A942DA37A2471C17D9C
mmaps.part0209.rar	0B6A1BE97C82C1DEEFB5D6D56AF6E6B8
mmaps.part0210.rar	66256FEEAB01A16BFE5C481966ABB7E9
mmaps.part0211.rar	593DDA88FE32CBE7C330B65B1026FCD0
mmaps.part0212.rar	98FF8087A7E2C8E3CD7232287C873C12
mmaps.part0213.rar	FA37D25A7381FC8CC1B8FE899A0D5E8B
mmaps.part0214.rar	3B1980BDB136D8EFA6EA9D866BA61278
mmaps.part0215.rar	0FE3032535A7F55C173FE17A32137E70
mmaps.part0216.rar	1E0ED87F3CEA29BD71241FE5CDBCC5BC
mmaps.part0217.rar	DFC7312A1A77EF070801BB8A0FE5FF6B
mmaps.part0218.rar	77EDAAF5BEE40460D9EDC5162261DB14
mmaps.part0219.rar	ADF235B52D0393CBA79AB5EF9D67A2C3
mmaps.part0220.rar	076E5069AAAF7EC0DF17D4C2920C974A
mmaps.part0221.rar	60521DADFFC20DE2082962AB3C736443
mmaps.part0222.rar	EBDE4BA12B28148584C098394D07BE36
mmaps.part0223.rar	7076D3F4C41335EF2195B23170488044
mmaps.part0224.rar	7EF510CB6C237C258981ECEACDE4BDC0
mmaps.part0225.rar	E8340E94C84634A378F32113797DFD44
mmaps.part0226.rar	CCF2BA896816740C60692168F1EDEEEC
mmaps.part0227.rar	81217B07E2E160C6584D9F359FB340A5
mmaps.part0228.rar	1EFFFCB7FF46A3192F56449C92B5E1E0
mmaps.part0229.rar	7DF28BBA1751BE849D71DEFAB22A163E
mmaps.part0230.rar	43B50E88AB39EAEA14BE102B0E89AC54
mmaps.part0231.rar	41615CD55A4F1247308CC7420DCA6133
mmaps.part0232.rar	9792F3E14CEFDAECA38EA86433C538FA
mmaps.part0233.rar	306DB69085B78374F96AC5DA858578C4
mmaps.part0234.rar	289DB9688BBEA0D7F4DB8FCBCD382083
mmaps.part0235.rar	EFDAF0AF4EE4954A55DC01ECB9CB6BD9
mmaps.part0236.rar	91B4E13D8BA6F1AE4B28865035575F7B
mmaps.part0237.rar	9A24D2DAC4A9A72C65FCB35FE403964B
mmaps.part0238.rar	8E453D1A38B301123997F8454B7DA2BA
mmaps.part0239.rar	D5C6095D4CAD3DA0BE56B96EE2A676CE
mmaps.part0240.rar	83FC20A48F1CB9367D7B1807AFA1CFEC
mmaps.part0241.rar	B78C47E48C443BFC33EA238AC70A01C8
mmaps.part0242.rar	5ADBF781D5CE057E699B382DDF504E41
mmaps.part0243.rar	362DC7C0A0C0B19D76CEB955CF2EE8A0
mmaps.part0244.rar	56C3F47371A4BB0CFE556DCDA3F4BEA1
mmaps.part0245.rar	5EA371E79300F5BE59FBA91AC5C14255
mmaps.part0246.rar	377CC34EFC52B6C7F96C74142145C1A9
mmaps.part0247.rar	AE95B832E096F0ECB6133011D0A6A112
mmaps.part0248.rar	198B9416F165ABD2CCDCCB14A05460AB
mmaps.part0249.rar	7C5B47C46608C79BFDC3E632EEE01984
mmaps.part0250.rar	F4DB27304990030D86A7EFD68CFAA32E
mmaps.part0251.rar	632CAFCB5CCF748035D73771F15823A3
mmaps.part0252.rar	F9EB349BC0897974C9A2EA6C560EE5F9
mmaps.part0253.rar	90C14E659330C110CBFDE8DA40C39373
mmaps.part0254.rar	931251D7F3E219B6FE44ED50D9283D51
mmaps.part0255.rar	D61D90B82A549434D58C7C2773C3CA74
mmaps.part0256.rar	F04C10CBB45872643A3F9AC4D690690C
mmaps.part0257.rar	2355A176E4B328F75D8EC062899F7ED9
mmaps.part0258.rar	2135816723164D6A392688254A4552E9
mmaps.part0259.rar	71293257054B894E506EAB9D5FC0417D
mmaps.part0260.rar	BAA535350B11B2CB8A296404206491F6
mmaps.part0261.rar	85DEAAD6BA69CB5B0F98FF39FE051944
mmaps.part0262.rar	3D1D54707E1E9E94298BCBB50A821393
mmaps.part0263.rar	52150784767949CEC19E29EE50435222
mmaps.part0264.rar	062EDB5D70F42E80473C99B2E0ED82BC
mmaps.part0265.rar	A2AFEEFEF1509F5AB2D205E9B8A41537
mmaps.part0266.rar	886D54106A25EAF07FA4ACC5C114B6A6
mmaps.part0267.rar	03E0C397582B91C9F0207FC0038D465C
mmaps.part0268.rar	38712EAFE91545F1F21F10D58FB21AC4
mmaps.part0269.rar	2CC4E8210288F1BFC4128676A279918B
mmaps.part0270.rar	141C75BB8113F2D591B6D7EEB08850E8
mmaps.part0271.rar	8358BC604EC2E3FE49C71508BCDA9CAE
mmaps.part0272.rar	4FDB647526FB90C189BC94DAEE4374BE
mmaps.part0273.rar	EAEC5615C3887BF0CFB6ECDDA0B7A09D
mmaps.part0274.rar	1ACFD2392D906972067FBF93379A5FF4
mmaps.part0275.rar	69F17A9E538331D21BFDC767E0CD6DE7
mmaps.part0276.rar	B8957AD414EED437552CF7AB7A1A20F6
mmaps.part0277.rar	FA824C5A57D9396D3EB608F015AA38D9
mmaps.part0278.rar	20C2CBB9609937AFFB4BC496441DC357
mmaps.part0279.rar	3B1112E89EF82585682E467935D257F7
mmaps.part0280.rar	A3BCD24575084EE4CE6724DA7D3B1AE8
mmaps.part0281.rar	C9593A6C19B0CB2CEC01BB5D86343338
mmaps.part0282.rar	0B48DF223F8F3DF64A11FB4735C62ED2
mmaps.part0283.rar	D20A1BFD16BC1147B58DC17C07E0A6C9
mmaps.part0284.rar	D9E86B75C2DAE2A152723F59511F88B7
mmaps.part0285.rar	16C8AE450547C980942DA0FC091E9482
mmaps.part0286.rar	C7994212D344F7E3FA9BCF2366CDB106
mmaps.part0287.rar	7DD5F8E31D16A829635F8F5BA062023E
mmaps.part0288.rar	74C512E06F483B90B050568C63BF3564
mmaps.part0289.rar	1914592233554882C897E4EBAAB77106
mmaps.part0290.rar	D7F30C2780EFE6EE5834D28823271D29
mmaps.part0291.rar	D21DE462572600E4A4696FC7A21C2115
mmaps.part0292.rar	39E638BDE8517466FDA0419E054F8FF2
mmaps.part0293.rar	CEA13214F25154FCA538953351CC83BF
mmaps.part0294.rar	E009327E5028367EB12186678FCE3318
mmaps.part0295.rar	55773785BEDC06F95D4D0659CFE751DA
mmaps.part0296.rar	EC9FFF61C18987DA8A903316E568A339
mmaps.part0297.rar	8AB0DA3FECE1656F9E5BBA77D2737C90
mmaps.part0298.rar	C22DF2DBAFA520A85E7124A107DEA4DE
mmaps.part0299.rar	99C8C6915710D8C9409EFCCEC346A111
mmaps.part0300.rar	EA66D8A643E3B1E62FD3FEE74A6B2E38
mmaps.part0301.rar	9B7C2671CEAD4C8D24B504AF1F8B3541
mmaps.part0302.rar	AC3BFF6EFBEA860534AB2D207DE0970C
mmaps.part0303.rar	C8F88A9B61C99AB5844E73566B9CD7B5
mmaps.part0304.rar	FF50FDBCFA72652A34EDB715BC876E98
mmaps.part0305.rar	32B952A973ACC4BBDA37BBB46D66C68E
mmaps.part0306.rar	6F0D78B6E1050FDD9693E66083BD9535
mmaps.part0307.rar	D1A35F4D0822741079245175C887C5AF
mmaps.part0308.rar	5D01D886D06C75AE76B9F6A930E3A6F0
mmaps.part0309.rar	C9D403A17EA03943F440D1FA3A8FF6A6
mmaps.part0310.rar	AC88A3C3610038D7858883DC90B82736
mmaps.part0311.rar	DB4C45EA25462D71BFE205B186BA7C95
mmaps.part0312.rar	9121FA8F2BDA6441E4347A9DD33FBD3B
mmaps.part0313.rar	A897345D30D93A51601EBE8B2C4F18D8
mmaps.part0314.rar	A8CE0879A2706D1F8168D8DF09B3F4AE
mmaps.part0315.rar	3F70AE1E13BC808EDB1BD56D52CFDB8B
mmaps.part0316.rar	7E534B199D8812E28EACC832B4229BE7
mmaps.part0317.rar	D92234D8E44EB5D8FCCEAEA5E26DC548
mmaps.part0318.rar	65309BB4DB436F50F849F0D46B4AEEB8
mmaps.part0319.rar	C037491F0E01E5A66CBFE2359C6722B4
mmaps.part0320.rar	B8E4973686FD1FAFE412D9676D2C47AE
mmaps.part0321.rar	55A7BD92FF707340FDBFD3BEEA888A89
mmaps.part0322.rar	39E69AC11B1CD86B1A12077E6D333BF1
mmaps.part0323.rar	4322222D4D872FCFC86BBACEDD524307
mmaps.part0324.rar	8A02E8029E059589ACA90B5756F17544
mmaps.part0325.rar	EF21E9081FF4DCBD41F471DA1E6F8FEE
mmaps.part0326.rar	5F0606465F1711E8EE9930D21962EC48
mmaps.part0327.rar	CF7CE2256DDE25F51469BCD6B9E2A500
mmaps.part0328.rar	14E6E5BE927903C70F2563657E8C81F7
mmaps.part0329.rar	7F20E29FA6C7894A6C780EE9996568CB
mmaps.part0330.rar	9BBC41089294571A48F9325D3A0FCA6E
mmaps.part0331.rar	36657480FCE02C6F0EEB2C6FDC6E8F30
mmaps.part0332.rar	08DB509D225A517DD1A39A51450D0382
mmaps.part0333.rar	FAB9B19239B7A2C34322752D9A50E228
mmaps.part0334.rar	BEECC428DB2FA04EC09B49E344D83F20
mmaps.part0335.rar	8CD888FD40AB1AE54C2C2471AC39937F
mmaps.part0336.rar	9DCDBD5CCE208414C03F9517D0E464A1
mmaps.part0337.rar	B104B6C6B70F8CCD54D45F225F65518D
mmaps.part0338.rar	A50F780DBF426B050A47DED8565302F7
mmaps.part0339.rar	241352B28B5B2F8D7B98BE7BB22A9161
mmaps.part0340.rar	CED3858098F9EE106B363A4D9256C0C7
mmaps.part0341.rar	912977162CC35C6A6138F1C9158CF28F
mmaps.part0342.rar	9F95162E3606BFE7E6D9ADB3EA5C9E85
mmaps.part0343.rar	A219713DAF2E988DF3D55107EE4679EF
mmaps.part0344.rar	39C0CE1CD2F7837F1E61A6E6FA926F99
mmaps.part0345.rar	4F8FBC246A2F17148E293DFF101F14C5
mmaps.part0346.rar	13A770DD23EF17B237CE5720D9F21D98
mmaps.part0347.rar	2C0B865C56D288A33C5CD8312E323065
mmaps.part0348.rar	D9431A5976587EE7B0064C2267DBD76F
mmaps.part0349.rar	4A935E479509938C4B68A620648CA2D4
mmaps.part0350.rar	032620DFABEC109EE650299750D5EC6C
mmaps.part0351.rar	797E2A0C13F9F8BB43AD12A59FE207EB
mmaps.part0352.rar	B975F77D8ED16FB233B3BCC4CEE6B22C
mmaps.part0353.rar	9720913A35A1C91B0023D5D8A9FC5F40
mmaps.part0354.rar	269C43DA7391373BA3A4EF1302DC37DC
mmaps.part0355.rar	E5D08D017B37FFFFA1A6F3C676BDA65B
mmaps.part0356.rar	182C2AFCC7BFE500A902EFC1F84283DC
mmaps.part0357.rar	C53C62D6F16F70E87A9B8A509C3E27EC
mmaps.part0358.rar	7A87E5214205A7A8AD3F717FCB2EBDA2
mmaps.part0359.rar	09D92A3C810EE4DC9EF133BC5F89254E
mmaps.part0360.rar	1DE01E79B61FFD9841F3E2457F145995
mmaps.part0361.rar	36CE82B7875CD219B707CBE662A12AE2
mmaps.part0362.rar	07F1724B06BE5B20193C6CA50CC67BC5
mmaps.part0363.rar	0E6885A86C39439C354C73719D163DF9
mmaps.part0364.rar	625BAF38A368EFC280F4BF5508CCB8DA
mmaps.part0365.rar	B21EEB293BED4F61356B0C4ED6FED253
mmaps.part0366.rar	77073B9E62206FBEBCD2FED240E7A2AD
mmaps.part0367.rar	32C79B834853496DA70CE5F4E0F4E29E
mmaps.part0368.rar	521E1DBA9F666192B3A938FA14303354
mmaps.part0369.rar	6F38C3566BE16AE47B2708EAA5797361
mmaps.part0370.rar	0D811EB8900243F4CB89D856D89C249E
mmaps.part0371.rar	75E17A8658BFB6CD8DB8BF8B2F89A53B
mmaps.part0372.rar	B946A68DE6FA220127F03D661E326894
mmaps.part0373.rar	62CA74E1C9C1204BDF94E3965ECB7B5B
mmaps.part0374.rar	672654C21232082AB806D85B6E895F68
mmaps.part0375.rar	A9010F31B4B9C3A8F7B9FD49E734D409
mmaps.part0376.rar	2B13B2BB6CF08F468654BE865B446A36
mmaps.part0377.rar	64932295C0B1D68946A871C403D72F9F
mmaps.part0378.rar	9A5CF0B4206B3E2C58583D95A3ADE7A9
mmaps.part0379.rar	EFEF15CC3E1E04C5283AC12DE37E214E
mmaps.part0380.rar	A208061F645D956107FFFB1A56B7DA00
mmaps.part0381.rar	2608FA1E61A1AD34CF1AF8981A9589A4
mmaps.part0382.rar	94785434769937EF478DB248BF129D26
mmaps.part0383.rar	3D140E2E230548298BA9E6839D7741B8
mmaps.part0384.rar	2108259CE33E30DD71B091F4E8AF351C
mmaps.part0385.rar	EEF2F0C4ED6789FA56B5C6EF59AF9042
mmaps.part0386.rar	30372BB4E545E24BEBAB7C256F407964
mmaps.part0387.rar	398751FEB734666EC014CB5801F77C49
mmaps.part0388.rar	96EC597BD48D25448E797F1921DC0A1E
mmaps.part0389.rar	7841749611B7AD6E6412D81CC82E39BB
mmaps.part0390.rar	04BC746D2D59989DFB655AA76938E7D4
mmaps.part0391.rar	E20A9ADCC7ED2A087B78EBB4036F8A28
mmaps.part0392.rar	0089B8F62FED5ADBC68E93F3AF62A439
mmaps.part0393.rar	6CC03B51B182809628486BFC0E4F736A
mmaps.part0394.rar	DF69A84CD72187E9EBF6C14FD221B4CA
mmaps.part0395.rar	194A1643F184371D1514E216C6144F76
mmaps.part0396.rar	4C21895CF6BCD31B780251FB1CFA4A7C
mmaps.part0397.rar	FE9F734C0198CC8E5557843614053820
mmaps.part0398.rar	DEC0DEB05181E4E246C8FCBFFB7D3A40
mmaps.part0399.rar	CA808157C1C491137632C9C5A0B59D01
mmaps.part0400.rar	21D912FF9D540B4B3A5158FDEA4E06C9
mmaps.part0401.rar	52A2A34015CB151D81893500D6766B2F
mmaps.part0402.rar	724814A57373FBBF80DD7773F3E8E885
mmaps.part0403.rar	435D7F3DA1EAF3B7F31834D1D26FEF89
mmaps.part0404.rar	D626BF2E694873F97DE519FBF6B24D26
mmaps.part0405.rar	181BC88983054B652995164810F42B92
mmaps.part0406.rar	F7EE48DE875F96B03746D14F13CECA5F
mmaps.part0407.rar	33D5728DE7B54EE93DD5759E98099FEC
mmaps.part0408.rar	EA0EC2CFA49ED6F8152A93D72003152B
mmaps.part0409.rar	D70745D66D724CEF73908DEA212DBD2C
mmaps.part0410.rar	12D6157C34D322A862DF47641488BE31
mmaps.part0411.rar	29AACDAD105C21D9C78333D1918A9554
mmaps.part0412.rar	3424DB581CA6369A91C5379CE342F97A
mmaps.part0413.rar	A88DCC2A0892198B21162A4BF466898E
mmaps.part0414.rar	4D94974C961DA35E70E9864EB4311C33
mmaps.part0415.rar	6965337BEF6FCC5FEC097ABB0D441005
mmaps.part0416.rar	54DAE9E47E8D022127422581925C4FAA
mmaps.part0417.rar	EC5F1CF321BC65C9C543985CFDEE443C
mmaps.part0418.rar	2A348F41F98DCF44115F39E950026D58
mmaps.part0419.rar	6E5C565B5D3B1131CE5429652A204A9A
mmaps.part0420.rar	7FF4875C59F29060273A51779023F1CF
mmaps.part0421.rar	10C2C595A90FDD8EE5DEA43E1EDFB220
mmaps.part0422.rar	4395EB3C77E8D5C56476F3C4DF267B6A
mmaps.part0423.rar	FFE3370A5924250A151E8EAA9AAD264D
mmaps.part0424.rar	9B6F013AFBC5A9F90BD24758C442BBE6
mmaps.part0425.rar	D9D09B3BDABCA505C5E83ADC1054B0F5
mmaps.part0426.rar	89571AB5C911690E8CC762BABD8F97FC
mmaps.part0427.rar	6C992D826D169C8AB4F1733BB0F0143E
mmaps.part0428.rar	E11DED3E1D95E5D07357CF4A4F51F3B4
mmaps.part0429.rar	60553EDCCB82DFB23131281459A27141
mmaps.part0430.rar	08EB1589AA7E701A78739C5C0F643B42
mmaps.part0431.rar	498731599D7A2A71B8333DD598DD3266
mmaps.part0432.rar	E978FD685809D19DC7D412587C487573
mmaps.part0433.rar	535278FB645FCE27F583D0B0BB3E49FE
mmaps.part0434.rar	2AC3A02957546BE77DD3A22502F12F3C
mmaps.part0435.rar	A1472962DD7FE06928EC1C0AD78B46BF
mmaps.part0436.rar	00978AA28E23BB6C36CA564490A4159B
mmaps.part0437.rar	927495A2F3BC6F06552CB920D37B1675
mmaps.part0438.rar	F23129ACCAF778F462FBACC5B9028639
mmaps.part0439.rar	824D7CFA0A7C1FFEE1FB6EF770C9D6FA
mmaps.part0440.rar	C1AB6CD43429BFF43D8DDD4678CD9579
mmaps.part0441.rar	A130F43B5F2B5FD7E0DA417C48FDDECE
mmaps.part0442.rar	64EFF4BCED2BFBC2E504FADD233EF2D8
mmaps.part0443.rar	74897969B3742E8915CFCB9EF4AF69A3
mmaps.part0444.rar	D45BF87E177E9A7F3DA491077D8632F2
mmaps.part0445.rar	151F94AE67BD4F581BD883A2593429C3
mmaps.part0446.rar	3F5AF25A8153701886C6520164295771
mmaps.part0447.rar	0FC9C989BE6CF898B48D23DC80A1656C
mmaps.part0448.rar	E7537711A61F0D46CA04E403A35F4D4F
mmaps.part0449.rar	184A24B17F215D7173E91CE6C93DE07F
mmaps.part0450.rar	0515229F1B59932A3BEED5AC07C72BD4
mmaps.part0451.rar	899DD92E4B7CA925503680911E1D95DD
mmaps.part0452.rar	2FA5DAC2A546CB425CFFAE916912E8A1
mmaps.part0453.rar	C1D079478558A9CE667FB7768AC6AB8D
mmaps.part0454.rar	B3CF98E640E68AD2F15FC01902734AC2
mmaps.part0455.rar	EA3BC6EB29416F9FD14B0A1AAAC91EB0
mmaps.part0456.rar	6BAC921A05A0ACB5D411D1831940A362
mmaps.part0457.rar	CB1B52A72273EC2819573B814F416E9D
mmaps.part0458.rar	2728E82C8CC136097DCA021553952306
mmaps.part0459.rar	7BA656356CF15D38BF95723D099E7832
